…
Then there's `group_by()`, which can be used in conjunction with all of these.

And `%>%` (piping) joins them all together into one happy family.

------------------------------------------------------------------------

### 1. `select()` works on variables

Let's get started with the first of our dplyr verbs, `select()`.

``` r
select(diabetes, ID, Pregnancies, Glucose)
```

    ## # A tibble: 768 x 3
    ##       ID Pregnancies Glucose
    ##    <dbl> <chr>         <dbl>
    ##  1    32 4-6             148
    ##  2   559 1-3              85
    ##  3   258 7-9             183
    ##  4     5 1-3              89
    ##  5   668 0               137
    ##  6   499 4-6             116
    ##  7   585 1-3              78
    ##  8   539 10+             115
    ##  9   270 1-3             197
    ## 10   214 7-9             125
    ## # ... with 758 more rows

Or, equivalently:

``` r
select(diabetes, ID:Glucose)
```

    ## # A tibble: 768 x 3
    ##       ID Pregnancies Glucose
    ##    <dbl> <chr>         <dbl>
    ##  1    32 4-6             148
    ##  2   559 1-3              85
    ##  3   258 7-9             183
    ##  4     5 1-3              89
    ##  5   668 0               137
    ##  6   499 4-6             116
    ##  7   585 1-3              78
    ##  8   539 10+             115
    ##  9   270 1-3             197
    ## 10   214 7-9             125
    ## # ... with 758 more rows

But be careful with not explicitly referencing variables, and *please* don't do this:

``` r
select(diabetes, 1,2,3)
```

    ## # A tibble: 768 x 3
    ##       ID Pregnancies Glucose
    ##    <dbl> <chr>         <dbl>
    ##  1    32 4-6             148
    ##  2   559 1-3              85
    ##  3   258 7-9             183
    ##  4     5 1-3              89
    ##  5   668 0               137
    ##  6   499 4-6             116
    ##  7   585 1-3              78
    ##  8   539 10+             115
    ##  9   270 1-3             197
    ## 10   214 7-9             125
    ## # ... with 758 more rows

`select()` has a lot of handy tricks:

-   `everything()` to select all variables
-   `-` to drop variables.
-   Use `=` within select to rename variables (*New\_name = Old\_name*)
-   Reposition variables based on their order in `select()`

I want to make Diabetes the first variable in my dataframe:

``` r
select(diabetes, Diabetes, everything())
```

    ## # A tibble: 768 x 10
    ##    Diabetes    ID Pregnancies Glucose BloodPressure SkinThickness Insulin
    ##       <dbl> <dbl> <chr>         <dbl>         <dbl>         <dbl>   <dbl>
    ##  1        1    32 4-6             148            72            35       0
    ##  2        0   559 1-3              85            66            29       0
    ##  3        1   258 7-9             183            64             0       0
    ##  4        0     5 1-3              89            66            23      94
    ##  5        1   668 0               137            40            35     168
    ##  6        0   499 4-6             116            74             0       0
    ##  7        1   585 1-3              78            50            32      88
    ##  8        0   539 10+             115             0             0       0
    ##  9        1   270 1-3             197            70            45     543
    ## 10        1   214 7-9             125            96             0       0
    ## # ... with 758 more rows, and 3 more variables: BMI <chr>,
    ## #   DiabetesPedigreeFunction <dbl>, Age <dbl>
…
(Full credit to [STAT 545](http://stat545.com/) for this handy table)

Let's start by filtering all observations in which blood glucose levels are greater than 100.

``` r
filter(diabetes, Glucose>100)
```

    ## # A tibble: 554 x 10
    ##       ID Pregnancies Glucose BloodPressure SkinThickness Insulin BMI  
    ##    <dbl> <chr>         <dbl>         <dbl>         <dbl>   <dbl> <chr>
    ##  1    32 4-6             148            72            35       0 Obese
    ##  2   258 7-9             183            64             0       0 Norm~
    ##  3   668 0               137            40            35     168 Obese
    ##  4   499 4-6             116            74             0       0 Over~
    ##  5   539 10+             115             0             0       0 Obese
    ##  6   270 1-3             197            70            45     543 Obese
    ##  7   214 7-9             125            96             0       0 Seve~
    ##  8   733 4-6             110            92             0       0 Obese
    ##  9   353 10+             168            74             0       0 Obese
    ## 10   162 10+             139            80             0       0 Over~
    ## # ... with 544 more rows, and 3 more variables:
    ## #   DiabetesPedigreeFunction <dbl>, Age <dbl>, Diabetes <dbl>

How about only data for people who are Obsese?

``` r
filter(diabetes, BMI=="Obese")
```

    ## # A tibble: 430 x 10
    ##       ID Pregnancies Glucose BloodPressure SkinThickness Insulin BMI  
    ##    <dbl> <chr>         <dbl>         <dbl>         <dbl>   <dbl> <chr>
    ##  1    32 4-6             148            72            35       0 Obese
    ##  2   668 0               137            40            35     168 Obese
    ##  3   585 1-3              78            50            32      88 Obese
    ##  4   539 10+             115             0             0       0 Obese
    ##  5   270 1-3             197            70            45     543 Obese
    ##  6   733 4-6             110            92             0       0 Obese
    ##  7   353 10+             168            74             0       0 Obese
    ##  8   386 1-3             189            60            23     846 Obese
    ##  9   533 1-3             103            30            38      83 Obese
    ## 10   164 1-3             115            70            30      96 Obese
    ## # ... with 420 more rows, and 3 more variables:
    ## #   DiabetesPedigreeFunction <dbl>, Age <dbl>, Diabetes <dbl>

Now I want people who are obsese or morbidly obese...

``` r
filter(diabetes, BMI=="Obese" | BMI=="Morbidly Obese")
```

    ## # A tibble: 465 x 10
    ##       ID Pregnancies Glucose BloodPressure SkinThickness Insulin BMI  
    ##    <dbl> <chr>         <dbl>         <dbl>         <dbl>   <dbl> <chr>
    ##  1    32 4-6             148            72            35       0 Obese
    ##  2   668 0               137            40            35     168 Obese
    ##  3   585 1-3              78            50            32      88 Obese
    ##  4   539 10+             115             0             0       0 Obese
    ##  5   270 1-3             197            70            45     543 Obese
    ##  6   733 4-6             110            92             0       0 Obese
    ##  7   353 10+             168            74             0       0 Obese
    ##  8   386 1-3             189            60            23     846 Obese
    ##  9   692 0               118            84            47     230 Morb~
    ## 10   533 1-3             103            30            38      83 Obese
    ## # ... with 455 more rows, and 3 more variables:
    ## #   DiabetesPedigreeFunction <dbl>, Age <dbl>, Diabetes <dbl>
…
1.  What's another way to select obese and morbidly obese people?

2.  Filter observations for people who are 25 to 50 years old.

------------------------------------------------------------------------

### 3. `arrange()` changes the order of rows

Okay, now that we've got `select` and `filter()` covered. Let's slip in `arrange()` quickly.

``` r
arrange(diabetes, ID)
```

    ## # A tibble: 768 x 10
    ##       ID Pregnancies Glucose BloodPressure SkinThickness Insulin BMI  
    ##    <dbl> <chr>         <dbl>         <dbl>         <dbl>   <dbl> <chr>
    ##  1     1 0               117             0             0       0 Obese
    ##  2     2 1-3             144            82            46     180 Morb~
    ##  3     3 1-3             155            74            17      96 Over~
    ##  4     4 4-6             125            78            31       0 Over~
    ##  5     5 1-3              89            66            23      94 Over~
    ##  6     6 4-6             125            80             0       0 Obese
    ##  7     7 1-3              90            68             8       0 Norm~
    ##  8     8 10+             126            90             0       0 Obese
    ##  9     9 1-3             119            54            13      50 Norm~
    ## 10    10 0                91            68            32     210 Obese
    ## # ... with 758 more rows, and 3 more variables:
    ## #   DiabetesPedigreeFunction <dbl>, Age <dbl>, Diabetes <dbl>

We can arrange by multiple variables. If you want a variable to be ordered the opposite way, just `desc()`!

Ordered by BMI, and then from oldest to youngest.

``` r
arrange(diabetes, BMI, desc(Age))
```

    ## # A tibble: 768 x 10
    ##       ID Pregnancies Glucose BloodPressure SkinThickness Insulin BMI  
    ##    <dbl> <chr>         <dbl>         <dbl>         <dbl>   <dbl> <chr>
    ##  1   129 0               173            78            32     265 Morb~
    ##  2   260 7-9             171           110            24     240 Morb~
    ##  3   608 4-6             134            80            37     370 Morb~
    ##  4   525 0                67            76             0       0 Morb~
    ##  5     2 1-3             144            82            46     180 Morb~
    ##  6    85 10+             111            84            40       0 Morb~
    ##  7   505 7-9             188            78             0       0 Morb~
    ##  8   673 7-9              81            78            40      48 Morb~
    ##  9   553 10+             103            68            40       0 Morb~
    ## 10    78 10+             135             0             0       0 Morb~
    ## # ... with 758 more rows, and 3 more variables:
    ## #   DiabetesPedigreeFunction <dbl>, Age <dbl>, Diabetes <dbl>
…
### 4. `%>%` chains operations together

Alrighty then, now that we've got a few tools, it's time to `%>%`!

The power of piping:

``` r
diabetes %>%
      select(id=ID, Glucose, Diabetes) %>%
        filter(Glucose <= 100) %>%
          arrange(id)
```

    ## # A tibble: 214 x 3
    ##       id Glucose Diabetes
    ##    <dbl>   <dbl>    <dbl>
    ##  1     5      89        0
    ##  2     7      90        0
    ##  3    10      91        0
    ##  4    11     100        0
    ##  5    13     100        1
    ##  6    17      85        0
    ##  7    22      90        1
    ##  8    23      95        0
    ##  9    24      89        0
    ## 10    26      93        0
    ## # ... with 204 more rows

Another example:

``` r
diabetes %>% 
    filter(BMI=="Obese", Age>=50) %>% 
      select(ID, Diabetes) %>% 
        arrange(desc(ID))
```

    ## # A tibble: 45 x 2
    ##       ID Diabetes
    ##    <dbl>    <dbl>
    ##  1   675        1
    ##  2   667        1
    ##  3   643        1
    ##  4   634        1
    ##  5   612        1
    ##  6   601        1
    ##  7   596        1
    ##  8   591        1
    ##  9   583        1
    ## 10   575        1
    ## # ... with 35 more rows
…
