…
Then there's `group_by()`, which can be used in conjunction with all of these.

And `%>%` (piping) joins them all together into one happy family.

------------------------------------------------------------------------

### 1. `select()` works on variables

Let's get started with the first of our dplyr verbs, `select()`.

``` r
select(diabetes, ID, Pregnancies, Glucose)
```

    ## # A tibble: 768 x 3
    ##       ID Pregnancies Glucose
    ##    <dbl> <chr>         <dbl>
    ##  1    32 4-6             148
    ##  2   559 1-3              85
    ##  3   258 7-9             183
    ##  4     5 1-3              89
    ##  5   668 0               137
    ##  6   499 4-6             116
    ##  7   585 1-3              78
    ##  8   539 10+             115
    ##  9   270 1-3             197
    ## 10   214 7-9             125
    ## # ... with 758 more rows

Or, equivalently:

``` r
select(diabetes, ID:Glucose)
```

    ## # A tibble: 768 x 3
    ##       ID Pregnancies Glucose
    ##    <dbl> <chr>         <dbl>
    ##  1    32 4-6             148
    ##  2   559 1-3              85
    ##  3   258 7-9             183
    ##  4     5 1-3              89
    ##  5   668 0               137
    ##  6   499 4-6             116
    ##  7   585 1-3              78
    ##  8   539 10+             115
    ##  9   270 1-3             197
    ## 10   214 7-9             125
    ## # ... with 758 more rows

But be careful with not explicitly referencing variables, and *please* don't do this:

``` r
select(diabetes, 1,2,3)
```

    ## # A tibble: 768 x 3
    ##       ID Pregnancies Glucose
    ##    <dbl> <chr>         <dbl>
    ##  1    32 4-6             148
    ##  2   559 1-3              85
    ##  3   258 7-9             183
    ##  4     5 1-3              89
    ##  5   668 0               137
    ##  6   499 4-6             116
    ##  7   585 1-3              78
    ##  8   539 10+             115
    ##  9   270 1-3             197
    ## 10   214 7-9             125
    ## # ... with 758 more rows

`select()` has a lot of handy tricks:

-   `everything()` to select all variables
-   `-` to drop variables.
-   Use `=` within select to rename variables (*New\_name = Old\_name*)
-   Reposition variables based on their order in `select()`

I want to yoink Diabetes and put it in the very first position in my dataset:

``` r
select(diabetes, Diabetes, everything())
```

    ## # A tibble: 768 x 10
    ##    Diabetes    ID Pregnancies Glucose BloodPressure SkinThickness Insulin
    ##       <dbl> <dbl> <chr>         <dbl>         <dbl>         <dbl>   <dbl>
    ##  1        1    32 4-6             148            72            35       0
    ##  2        0   559 1-3              85            66            29       0
    ##  3        1   258 7-9             183            64             0       0
    ##  4        0     5 1-3              89            66            23      94
    ##  5        1   668 0               137            40            35     168
    ##  6        0   499 4-6             116            74             0       0
    ##  7        1   585 1-3              78            50            32      88
    ##  8        0   539 10+             115             0             0       0
    ##  9        1   270 1-3             197            70            45     543
    ## 10        1   214 7-9             125            96             0       0
    ## # ... with 758 more rows, and 3 more variables: BMI <chr>,
    ## #   DiabetesPedigreeFunction <dbl>, Age <dbl>
…
(Full credit to [STAT 545](http://stat545.com/) for this handy table)

We can negate all these operations by wrapping them in brackets so: `!(a %in% b)` reads `a` is NOT an element in `b`.

Let's start by filtering all observations in which blood glucose levels are greater than 100.

``` r
filter(diabetes, Glucose>100)
```

    ## # A tibble: 554 x 10
    ##       ID Pregnancies Glucose BloodPressure SkinThickness Insulin BMI  
    ##    <dbl> <chr>         <dbl>         <dbl>         <dbl>   <dbl> <chr>
    ##  1    32 4-6             148            72            35       0 Obese
    ##  2   258 7-9             183            64             0       0 Norm~
    ##  3   668 0               137            40            35     168 Obese
    ##  4   499 4-6             116            74             0       0 Over~
    ##  5   539 10+             115             0             0       0 Obese
    ##  6   270 1-3             197            70            45     543 Obese
    ##  7   214 7-9             125            96             0       0 Seve~
    ##  8   733 4-6             110            92             0       0 Obese
    ##  9   353 10+             168            74             0       0 Obese
    ## 10   162 10+             139            80             0       0 Over~
    ## # ... with 544 more rows, and 3 more variables:
    ## #   DiabetesPedigreeFunction <dbl>, Age <dbl>, Diabetes <dbl>

How about only data for people who are Obsese?

``` r
filter(diabetes, BMI=="Obese")
```

    ## # A tibble: 430 x 10
    ##       ID Pregnancies Glucose BloodPressure SkinThickness Insulin BMI  
    ##    <dbl> <chr>         <dbl>         <dbl>         <dbl>   <dbl> <chr>
    ##  1    32 4-6             148            72            35       0 Obese
    ##  2   668 0               137            40            35     168 Obese
    ##  3   585 1-3              78            50            32      88 Obese
    ##  4   539 10+             115             0             0       0 Obese
    ##  5   270 1-3             197            70            45     543 Obese
    ##  6   733 4-6             110            92             0       0 Obese
    ##  7   353 10+             168            74             0       0 Obese
    ##  8   386 1-3             189            60            23     846 Obese
    ##  9   533 1-3             103            30            38      83 Obese
    ## 10   164 1-3             115            70            30      96 Obese
    ## # ... with 420 more rows, and 3 more variables:
    ## #   DiabetesPedigreeFunction <dbl>, Age <dbl>, Diabetes <dbl>

Now I want people who are obsese or morbidly obese.

``` r
filter(diabetes, BMI=="Obese" | BMI=="Morbidly Obese")
```

    ## # A tibble: 465 x 10
    ##       ID Pregnancies Glucose BloodPressure SkinThickness Insulin BMI  
    ##    <dbl> <chr>         <dbl>         <dbl>         <dbl>   <dbl> <chr>
    ##  1    32 4-6             148            72            35       0 Obese
    ##  2   668 0               137            40            35     168 Obese
    ##  3   585 1-3              78            50            32      88 Obese
    ##  4   539 10+             115             0             0       0 Obese
    ##  5   270 1-3             197            70            45     543 Obese
    ##  6   733 4-6             110            92             0       0 Obese
    ##  7   353 10+             168            74             0       0 Obese
    ##  8   386 1-3             189            60            23     846 Obese
    ##  9   692 0               118            84            47     230 Morb~
    ## 10   533 1-3             103            30            38      83 Obese
    ## # ... with 455 more rows, and 3 more variables:
    ## #   DiabetesPedigreeFunction <dbl>, Age <dbl>, Diabetes <dbl>

**Exercises**

-   Can you think of another way to select obese and morbidly obese people?

``` r
filter(diabetes, BMI %in% c("Obese","Morbidly Obese"))
```

    ## # A tibble: 465 x 10
    ##       ID Pregnancies Glucose BloodPressure SkinThickness Insulin BMI  
    ##    <dbl> <chr>         <dbl>         <dbl>         <dbl>   <dbl> <chr>
    ##  1    32 4-6             148            72            35       0 Obese
    ##  2   668 0               137            40            35     168 Obese
    ##  3   585 1-3              78            50            32      88 Obese
    ##  4   539 10+             115             0             0       0 Obese
    ##  5   270 1-3             197            70            45     543 Obese
    ##  6   733 4-6             110            92             0       0 Obese
    ##  7   353 10+             168            74             0       0 Obese
    ##  8   386 1-3             189            60            23     846 Obese
    ##  9   692 0               118            84            47     230 Morb~
    ## 10   533 1-3             103            30            38      83 Obese
    ## # ... with 455 more rows, and 3 more variables:
    ## #   DiabetesPedigreeFunction <dbl>, Age <dbl>, Diabetes <dbl>

-   Filter observations for people who are 25 to 50 years old.

``` r
filter(diabetes, Age <=50, Age>= 25)
```

    ## # A tibble: 468 x 10
    ##       ID Pregnancies Glucose BloodPressure SkinThickness Insulin BMI  
    ##    <dbl> <chr>         <dbl>         <dbl>         <dbl>   <dbl> <chr>
    ##  1    32 4-6             148            72            35       0 Obese
    ##  2   559 1-3              85            66            29       0 Over~
    ##  3   258 7-9             183            64             0       0 Norm~
    ##  4   668 0               137            40            35     168 Obese
    ##  5   499 4-6             116            74             0       0 Over~
    ##  6   585 1-3              78            50            32      88 Obese
    ##  7   539 10+             115             0             0       0 Obese
    ##  8   733 4-6             110            92             0       0 Obese
    ##  9   353 10+             168            74             0       0 Obese
    ## 10    13 7-9             100             0             0       0 Over~
    ## # ... with 458 more rows, and 3 more variables:
    ## #   DiabetesPedigreeFunction <dbl>, Age <dbl>, Diabetes <dbl>

-   Exclude observations where the patient has had 10 or more pregnancies.

``` r
filter(diabetes, Pregnancies != "10+")
```

    ## # A tibble: 710 x 10
    ##       ID Pregnancies Glucose BloodPressure SkinThickness Insulin BMI  
    ##    <dbl> <chr>         <dbl>         <dbl>         <dbl>   <dbl> <chr>
    ##  1    32 4-6             148            72            35       0 Obese
    ##  2   559 1-3              85            66            29       0 Over~
    ##  3   258 7-9             183            64             0       0 Norm~
    ##  4     5 1-3              89            66            23      94 Over~
    ##  5   668 0               137            40            35     168 Obese
    ##  6   499 4-6             116            74             0       0 Over~
    ##  7   585 1-3              78            50            32      88 Obese
    ##  8   270 1-3             197            70            45     543 Obese
    ##  9   214 7-9             125            96             0       0 Seve~
    ## 10   733 4-6             110            92             0       0 Obese
    ## # ... with 700 more rows, and 3 more variables:
    ## #   DiabetesPedigreeFunction <dbl>, Age <dbl>, Diabetes <dbl>

------------------------------------------------------------------------

### 3. `arrange()` changes the order of rows

Now that we've got `select` and `filter()` covered. Let's slip in `arrange()` quickly.

``` r
arrange(diabetes, ID)
```

    ## # A tibble: 768 x 10
    ##       ID Pregnancies Glucose BloodPressure SkinThickness Insulin BMI  
    ##    <dbl> <chr>         <dbl>         <dbl>         <dbl>   <dbl> <chr>
    ##  1     1 0               117             0             0       0 Obese
    ##  2     2 1-3             144            82            46     180 Morb~
    ##  3     3 1-3             155            74            17      96 Over~
    ##  4     4 4-6             125            78            31       0 Over~
    ##  5     5 1-3              89            66            23      94 Over~
    ##  6     6 4-6             125            80             0       0 Obese
    ##  7     7 1-3              90            68             8       0 Norm~
    ##  8     8 10+             126            90             0       0 Obese
    ##  9     9 1-3             119            54            13      50 Norm~
    ## 10    10 0                91            68            32     210 Obese
    ## # ... with 758 more rows, and 3 more variables:
    ## #   DiabetesPedigreeFunction <dbl>, Age <dbl>, Diabetes <dbl>

We can arrange by multiple variables. You can `desc()` too.

Ordered by BMI, and then from oldest to youngest.

``` r
arrange(diabetes, BMI, desc(Age))
```

    ## # A tibble: 768 x 10
    ##       ID Pregnancies Glucose BloodPressure SkinThickness Insulin BMI  
    ##    <dbl> <chr>         <dbl>         <dbl>         <dbl>   <dbl> <chr>
    ##  1   129 0               173            78            32     265 Morb~
    ##  2   260 7-9             171           110            24     240 Morb~
    ##  3   608 4-6             134            80            37     370 Morb~
    ##  4   525 0                67            76             0       0 Morb~
    ##  5     2 1-3             144            82            46     180 Morb~
    ##  6    85 10+             111            84            40       0 Morb~
    ##  7   505 7-9             188            78             0       0 Morb~
    ##  8   673 7-9              81            78            40      48 Morb~
    ##  9   553 10+             103            68            40       0 Morb~
    ## 10    78 10+             135             0             0       0 Morb~
    ## # ... with 758 more rows, and 3 more variables:
    ## #   DiabetesPedigreeFunction <dbl>, Age <dbl>, Diabetes <dbl>
…
### 4. `%>%` chains operations together

Alrighty then, now that we've got `select()`, `filter()` and `arrange()`, let's `%>%` them together!

The power of piping:

``` r
diabetes %>%
      select(id=ID, Glucose, Diabetes) %>%
        filter(Glucose <= 100) %>%
          arrange(id)
```

    ## # A tibble: 214 x 3
    ##       id Glucose Diabetes
    ##    <dbl>   <dbl>    <dbl>
    ##  1     5      89        0
    ##  2     7      90        0
    ##  3    10      91        0
    ##  4    11     100        0
    ##  5    13     100        1
    ##  6    17      85        0
    ##  7    22      90        1
    ##  8    23      95        0
    ##  9    24      89        0
    ## 10    26      93        0
    ## # ... with 204 more rows

Another example:

``` r
diabetes %>% 
    filter(BMI=="Obese", Age>=50) %>% 
      select(ID, Diabetes, BloodPressure) %>% 
        arrange(desc(BloodPressure))
```

    ## # A tibble: 45 x 3
    ##       ID Diabetes BloodPressure
    ##    <dbl>    <dbl>         <dbl>
    ##  1   136        0           108
    ##  2    88        0           106
    ##  3   139        1           104
    ##  4   197        0            95
    ##  5   667        1            94
    ##  6   452        0            92
    ##  7   596        1            92
    ##  8   146        1            92
    ##  9   601        1            90
    ## 10   634        1            90
    ## # ... with 35 more rows
…
-   ...

Now that we're familiar with `%>%`, let's keep using it as we learn our remaining two verbs: `mutate()` and `summarise()`

### Use `mutate()` to create new variables

I want diabetes pedigree function to be expressed as a percentage rather than a proportion.

``` r
diabetes %>% 
  mutate(DiabetesPedigreePercent= DiabetesPedigreeFunction * 100)
```

    ## # A tibble: 768 x 11
    ##       ID Pregnancies Glucose BloodPressure SkinThickness Insulin BMI  
    ##    <dbl> <chr>         <dbl>         <dbl>         <dbl>   <dbl> <chr>
    ##  1    32 4-6             148            72            35       0 Obese
    ##  2   559 1-3              85            66            29       0 Over~
    ##  3   258 7-9             183            64             0       0 Norm~
    ##  4     5 1-3              89            66            23      94 Over~
    ##  5   668 0               137            40            35     168 Obese
    ##  6   499 4-6             116            74             0       0 Over~
    ##  7   585 1-3              78            50            32      88 Obese
    ##  8   539 10+             115             0             0       0 Obese
    ##  9   270 1-3             197            70            45     543 Obese
    ## 10   214 7-9             125            96             0       0 Seve~
    ## # ... with 758 more rows, and 4 more variables:
    ## #   DiabetesPedigreeFunction <dbl>, Age <dbl>, Diabetes <dbl>,
    ## #   DiabetesPedigreePercent <dbl>

**Exercises:**

-   Make a new variable called *GlucoseDiff*, which equals the difference between each patient's glucose level and the average glucose level for all patients. Then reduce the dataset to only the *ID*, *Glucose*, and *GlucoseDiff* variables.

``` r
diabetes %>% 
    mutate(GlucoseDiff= Glucose - mean(Glucose)) %>% 
      select(ID, Glucose, GlucoseDiff)
```

    ## # A tibble: 768 x 3
    ##       ID Glucose GlucoseDiff
    ##    <dbl>   <dbl>       <dbl>
    ##  1    32     148       27.1 
    ##  2   559      85      -35.9 
    ##  3   258     183       62.1 
    ##  4     5      89      -31.9 
    ##  5   668     137       16.1 
    ##  6   499     116       -4.89
    ##  7   585      78      -42.9 
    ##  8   539     115       -5.89
    ##  9   270     197       76.1 
    ## 10   214     125        4.11
    ## # ... with 758 more rows

-   Filter the dataset to include only patients with insulin level not equal to 0, and then create a new variable called *GI.Ratio* that gives the ratio of their glucose to insulin levels

``` r
diabetes %>% 
  filter(Insulin > 0) %>% 
    mutate(GI.Ratio = Glucose/Insulin)
```

    ## # A tibble: 394 x 11
    ##       ID Pregnancies Glucose BloodPressure SkinThickness Insulin BMI  
    ##    <dbl> <chr>         <dbl>         <dbl>         <dbl>   <dbl> <chr>
    ##  1     5 1-3              89            66            23      94 Over~
    ##  2   668 0               137            40            35     168 Obese
    ##  3   585 1-3              78            50            32      88 Obese
    ##  4   270 1-3             197            70            45     543 Obese
    ##  5   386 1-3             189            60            23     846 Obese
    ##  6   155 4-6             166            72            19     175 Over~
    ##  7   692 0               118            84            47     230 Morb~
    ##  8   533 1-3             103            30            38      83 Obese
    ##  9   164 1-3             115            70            30      96 Obese
    ## 10   253 1-3             126            88            41     235 Obese
    ## # ... with 384 more rows, and 4 more variables:
    ## #   DiabetesPedigreeFunction <dbl>, Age <dbl>, Diabetes <dbl>,
    ## #   GI.Ratio <dbl>
…
